[
	
	{
		"date": 1468379171,
		"value" : 4.2,
		"type" : 1,
		"level": 1
	},
	{
		"date": 1468375571,
		"value" : 11.2,
		"type" : 2,
		"level": 2
	},
	{
		"date": 1468346771,
		"value" : 3.2,
		"type" : 3,
		"level": 3
	},
	{
		"date": 1468260371,
		"value" : 9.2,
		"type" : 4,
		"level": 2
	},
	{
		"date": 1468173971,
		"value" : 6.2,
		"type" : 1,
		"level": 1
	},
	{
		"date": 1468087571,
		"value" : 26.2,
		"type" : 1,
		"level": 2
	},
	{
		"date": 1468083971,
		"value" : 8.3,
		"type" : 2,
		"level": 2
	},
	{
		"date": 1468069571,
		"value" : 5.8,
		"type" : 1,
		"level": 1
	},
	{
		"date": 1468065971,
		"value" : 7.2,
		"type" : 2,
		"level": 1
	},
	{
		"date": 1468058771,
		"value" : 2.2,
		"type" : 3,
		"level": 3
	},
	{
		"date": 1468051571,
		"value" : 6.2,
		"type" : 4,
		"level": 1
	},
	{
		"date": 1468044371,
		"value" : 4.4,
		"type" : 1,
		"level": 1
	},
	{
		"date": 1468029971,
		"value" : 9.2,
		"type" : 1,
		"level": 2
	},
	{
		"date": 1468022771,
		"value" : 2.2,
		"type" : 1,
		"level": 3
	},
	{
		"date": 1467936371,
		"value" : 6.2,
		"type" : 1,
		"level": 1
	},
	{
		"date": 1467914771,
		"value" : 7.2,
		"type" : 1,
		"level": 1
	},
	{
		"date": 1467900371,
		"value" : 7.5,
		"type" : 1,
		"level": 1
	},
	{
		"date": 1467896771,
		"value" : 15.3,
		"type" : 1,
		"level": 2
	},
	{
		"date": 1467893171,
		"value" : 6.6,
		"type" : 1,
		"level": 1
	},
	{
		"date": 1467889571,
		"value" : 6.9,
		"type" : 1,
		"level": 1
	},
	{
		"date": 1467882371,
		"value" : 6.2,
		"type" : 1,
		"level": 1
	},
	{
		"date": 1467864371,
		"value" : 7.7,
		"type" : 1,
		"level": 1
	},
	{
		"date": 1467691571,
		"value" : 15.3,
		"type" : 1,
		"level": 2
	},
	{
		"date": 1467605171,
		"value" : 6.6,
		"type" : 1,
		"level": 1
	},
	{
		"date": 1467605171,
		"value" : 6.9,
		"type" : 1,
		"level": 1
	},
	{
		"date": 1467432371,
		"value" : 6.2,
		"type" : 1,
		"level": 1
	},
	{
		"date": 1467345971,
		"value" : 7.7,
		"type" : 1,
		"level": 1
	},
	{
		"date": 1467342371,
		"value" : 15.3,
		"type" : 1,
		"level": 2
	},
	{
		"date": 1467083171,
		"value" : 6.6,
		"type" : 1,
		"level": 1
	},
	{
		"date": 1466910371,
		"value" : 6.9,
		"type" : 1,
		"level": 1
	},
	{
		"date": 1466651171,
		"value" : 6.2,
		"type" : 1,
		"level": 1
	},
	{
		"date": 1466391971,
		"value" : 7.7,
		"type" : 1,
		"level": 1
	},
	{
		"date": 1466046371,
		"value" : 15.3,
		"type" : 1,
		"level": 2
	},
	{
		"date": 1466042771,
		"value" : 6.6,
		"type" : 1,
		"level": 1
	},
	{
		"date": 1466039171,
		"value" : 6.9,
		"type" : 1,
		"level": 1
	},
	{
		"date": 1466035571,
		"value" : 6.2,
		"type" : 1,
		"level": 1
	},
	{
		"date": 1466031971,
		"value" : 7.7,
		"type" : 1,
		"level": 1
	},
	{
		"date": 1466024771,
		"value" : 15.3,
		"type" : 1,
		"level": 2
	},
	{
		"date": 1464627660,
		"value" : 10.3,
		"type" : 1,
		"level": 2
	},
	{
		"date": 1463346371,
		"value" : 6.6,
		"type" : 1,
		"level": 1
	},
	{
		"date": 1463259971,
		"value" : 6.9,
		"type" : 1,
		"level": 1
	},
	{
		"date": 1463173571,
		"value" : 6.2,
		"type" : 1,
		"level": 1
	},
	{
		"date": 1463087171,
		"value" : 7.7,
		"type" : 1,
		"level": 1
	},
	{
		"date": 1463083571,
		"value" : 15.3,
		"type" : 1,
		"level": 2
	},
	{
		"date": 1463079971,
		"value" : 6.6,
		"type" : 1,
		"level": 1
	},
	{
		"date": 1463076371,
		"value" : 6.9,
		"type" : 1,
		"level": 1
	},
	{
		"date": 1462385171,
		"value" : 6.2,
		"type" : 1,
		"level": 1
	},
	{
		"date": 1461521171,
		"value" : 7.7,
		"type" : 1,
		"level": 1
	},
	{
		"date": 1461517571,
		"value" : 15.3,
		"type" : 1,
		"level": 2
	},
	{
		"date": 1456333571,
		"value" : 6.6,
		"type" : 1,
		"level": 1
	},
	{
		"date": 1453655171,
		"value" : 6.9,
		"type" : 1,
		"level": 1
	},
	{
		"date": 1453482371,
		"value" : 6.2,
		"type" : 1,
		"level": 1
	},
	{
		"date": 1453309571,
		"value" : 7.7,
		"type" : 1,
		"level": 1
	}
]